[
  {
    "id": "2534",
    "name": "AMAZONAS",
    "code": "01",
    "tag": "AMAZONAS, PERÚ",
    "search": "AMAZONAS PERÚ",
    "numberChildren": "7",
    "level": "1",
    "parentId": "2533"
  },
  {
    "id": "2625",
    "name": "ANCASH",
    "code": "02",
    "tag": "ANCASH, PERÚ",
    "search": "ANCASH PERÚ",
    "numberChildren": "20",
    "level": "1",
    "parentId": "2533"
  },
  {
    "id": "2812",
    "name": "APURIMAC",
    "code": "03",
    "tag": "APURIMAC, PERÚ",
    "search": "APURIMAC PERÚ",
    "numberChildren": "7",
    "level": "1",
    "parentId": "2533"
  },
  {
    "id": "2900",
    "name": "AREQUIPA",
    "code": "04",
    "tag": "AREQUIPA, PERÚ",
    "search": "AREQUIPA PERÚ",
    "numberChildren": "8",
    "level": "1",
    "parentId": "2533"
  },
  {
    "id": "3020",
    "name": "AYACUCHO",
    "code": "05",
    "tag": "AYACUCHO, PERÚ",
    "search": "AYACUCHO PERÚ",
    "numberChildren": "11",
    "level": "1",
    "parentId": "2533"
  },
  {
    "id": "3143",
    "name": "CAJAMARCA",
    "code": "06",
    "tag": "CAJAMARCA, PERÚ",
    "search": "CAJAMARCA PERÚ",
    "numberChildren": "13",
    "level": "1",
    "parentId": "2533"
  },
  {
    "id": "3292",
    "name": "CUSCO",
    "code": "08",
    "tag": "CUSCO, PERÚ",
    "search": "CUSCO PERÚ",
    "numberChildren": "13",
    "level": "1",
    "parentId": "2533"
  },
  {
    "id": "3414",
    "name": "HUANCAVELICA",
    "code": "09",
    "tag": "HUANCAVELICA, PERÚ",
    "search": "HUANCAVELICA PERÚ",
    "numberChildren": "7",
    "level": "1",
    "parentId": "2533"
  },
  {
    "id": "3518",
    "name": "HUANUCO",
    "code": "10",
    "tag": "HUANUCO, PERÚ",
    "search": "HUANUCO PERÚ",
    "numberChildren": "11",
    "level": "1",
    "parentId": "2533"
  },
  {
    "id": "3606",
    "name": "ICA",
    "code": "11",
    "tag": "ICA, PERÚ",
    "search": "ICA PERÚ",
    "numberChildren": "5",
    "level": "1",
    "parentId": "2533"
  },
  {
    "id": "3655",
    "name": "JUNIN",
    "code": "12",
    "tag": "JUNIN, PERÚ",
    "search": "JUNIN PERÚ",
    "numberChildren": "9",
    "level": "1",
    "parentId": "2533"
  },
  {
    "id": "3788",
    "name": "LA LIBERTAD",
    "code": "13",
    "tag": "LA LIBERTAD, PERÚ",
    "search": "LA LIBERTAD PERÚ",
    "numberChildren": "12",
    "level": "1",
    "parentId": "2533"
  },
  {
    "id": "3884",
    "name": "LAMBAYEQUE",
    "code": "14",
    "tag": "LAMBAYEQUE, PERÚ",
    "search": "LAMBAYEQUE PERÚ",
    "numberChildren": "3",
    "level": "1",
    "parentId": "2533"
  },
  {
    "id": "3926",
    "name": "LIMA",
    "code": "15",
    "tag": "LIMA, PERÚ",
    "search": "LIMA PERÚ",
    "numberChildren": "10",
    "level": "1",
    "parentId": "2533"
  },
  {
    "id": "4108",
    "name": "LORETO",
    "code": "16",
    "tag": "LORETO, PERÚ",
    "search": "LORETO PERÚ",
    "numberChildren": "6",
    "level": "1",
    "parentId": "2533"
  },
  {
    "id": "4165",
    "name": "MADRE DE DIOS",
    "code": "17",
    "tag": "MADRE DE DIOS, PERÚ",
    "search": "MADRE DE DIOS PERÚ",
    "numberChildren": "3",
    "level": "1",
    "parentId": "2533"
  },
  {
    "id": "4180",
    "name": "MOQUEGUA",
    "code": "18",
    "tag": "MOQUEGUA, PERÚ",
    "search": "MOQUEGUA PERÚ",
    "numberChildren": "3",
    "level": "1",
    "parentId": "2533"
  },
  {
    "id": "4204",
    "name": "PASCO",
    "code": "19",
    "tag": "PASCO, PERÚ",
    "search": "PASCO PERÚ",
    "numberChildren": "3",
    "level": "1",
    "parentId": "2533"
  },
  {
    "id": "4236",
    "name": "PIURA",
    "code": "20",
    "tag": "PIURA, PERÚ",
    "search": "PIURA PERÚ",
    "numberChildren": "8",
    "level": "1",
    "parentId": "2533"
  },
  {
    "id": "4309",
    "name": "PUNO",
    "code": "21",
    "tag": "PUNO, PERÚ",
    "search": "PUNO PERÚ",
    "numberChildren": "13",
    "level": "1",
    "parentId": "2533"
  },
  {
    "id": "4431",
    "name": "SAN MARTIN",
    "code": "22",
    "tag": "SAN MARTIN, PERÚ",
    "search": "SAN MARTIN PERÚ",
    "numberChildren": "10",
    "level": "1",
    "parentId": "2533"
  },
  {
    "id": "4519",
    "name": "TACNA",
    "code": "23",
    "tag": "TACNA, PERÚ",
    "search": "TACNA PERÚ",
    "numberChildren": "4",
    "level": "1",
    "parentId": "2533"
  },
  {
    "id": "4551",
    "name": "TUMBES",
    "code": "24",
    "tag": "TUMBES, PERÚ",
    "search": "TUMBES PERÚ",
    "numberChildren": "3",
    "level": "1",
    "parentId": "2533"
  },
  {
    "id": "4567",
    "name": "UCAYALI",
    "code": "25",
    "tag": "UCAYALI, PERÚ",
    "search": "UCAYALI PERÚ",
    "numberChildren": "4",
    "level": "1",
    "parentId": "2533"
  }
]